Modeling IFT and Voulme Expansion
================

``` r
# let's us read the data set
ift_data <- read_excel(path = "data/ift_data.xlsx")
ift_data
```

    ## # A tibble: 561 x 5
    ##    Gas   Water_content time_minutes volume_ratio   IFT
    ##    <chr>         <dbl>        <dbl>        <dbl> <dbl>
    ##  1 CH4               0      0.00005         1     25.1
    ##  2 CH4               0     15.0             1.00  25.1
    ##  3 CH4               0     30               1.01  25.2
    ##  4 CH4               0     45               1.01  25.2
    ##  5 CH4               0     60               1.01  25.2
    ##  6 CH4               0     75               1.01  25.1
    ##  7 CH4               0     90               1.01  25.2
    ##  8 CH4               0    105               1.00  25.2
    ##  9 CH4               0    120               1.00  25.1
    ## 10 CH4               0    135               1     25.1
    ## # … with 551 more rows
…
